1623    INFO:            main: *** Lex Talionis Engine Version 0.9.4.5 ***
1626   DEBUG:          Engine: Frame took too long! 1623 ms
1626    INFO:          Engine: Music: Fade in ./Audio/music/Helms Deep - Start.ogg
1626    INFO:          Engine: Music: New Song ./Audio/music/Helms Deep - Start.ogg
1626    INFO:          Engine: Music: Next Song ./Audio/music/Helms Deep - Start.ogg
1626   DEBUG:    StateMachine: Temp State: ['transition_in']
1630   DEBUG:            main: Current states ['start_start', 'transition_in']
1761   DEBUG:    StateMachine: Temp State: ['pop']
1776   DEBUG:            main: Current states ['start_start']
2035   DEBUG:          Engine: Music: Actual Fade in!
2084   DEBUG:    StateMachine: Temp State: ['start_option', 'transition_out']
2099   DEBUG:            main: Current states ['start_start', 'start_option', 'transition_out']
2246   DEBUG:    StateMachine: Temp State: ['pop']
2260   DEBUG:            main: Current states ['start_start', 'start_option']
2260   DEBUG:    StateMachine: Temp State: ['transition_in']
2276   DEBUG:            main: Current states ['start_start', 'start_option', 'transition_in']
2405   DEBUG:    StateMachine: Temp State: ['pop']
2420   DEBUG:            main: Current states ['start_start', 'start_option']
3116   DEBUG:    StateMachine: Temp State: ['start_mode', 'transition_out']
3131   DEBUG:            main: Current states ['start_start', 'start_option', 'start_mode', 'transition_out']
3277   DEBUG:    StateMachine: Temp State: ['pop']
3292   DEBUG:            main: Current states ['start_start', 'start_option', 'start_mode']
3293   DEBUG:    StateMachine: Temp State: ['transition_in']
3309   DEBUG:            main: Current states ['start_start', 'start_option', 'start_mode', 'transition_in']
3439   DEBUG:    StateMachine: Temp State: ['pop']
3454   DEBUG:            main: Current states ['start_start', 'start_option', 'start_mode']
5240   DEBUG:    StateMachine: Temp State: ['transition_clean']
5256   DEBUG:            main: Current states ['start_start', 'start_option', 'start_mode', 'transition_clean']
5387   DEBUG:    StateMachine: Temp State: ['pop']
5399   DEBUG:            main: Current states ['start_start', 'start_option', 'start_mode']
5400   DEBUG:    StateMachine: Temp State: ['transition_in']
5415   DEBUG:            main: Current states ['start_start', 'start_option', 'start_mode', 'transition_in']
5547   DEBUG:    StateMachine: Temp State: ['pop']
5559   DEBUG:            main: Current states ['start_start', 'start_option', 'start_mode']
36453   DEBUG:          Engine: Music: Fade Catch Event
36453   DEBUG:          Engine: Music: Music not playing!
36453    INFO:          Engine: Music: Swap to Loop
